/* XPM */
static char *d2_xpm[]={
"13 20 2 1",
". c black",
"  c None",
"    .....    ",
"  .........  ",
" ........... ",
" ....   .... ",
"....     ....",
"....     ....",
"         ....",
"         ....",
"        .... ",
"       ..... ",
"      .....  ",
"     .....   ",
"    .....    ",
"   .....     ",
"  .....      ",
"  ....       ",
" ....        ",
" ............",
".............",
"............."};
