/* XPM */
static char * deg_xpm[] = {
"32 16 2 1",
"  s None c None",
". c #000000",
"                                ",
"                                ",
"         ..                     ",
"         ..                     ",
"         ..                     ",
"     ......  .....   ......     ",
"    ....... ....... .......     ",
"    ..   .. ..   .. ..   ..     ",
"    ..   .. ....... ..   ..     ",
"    ..   .. ..      .......     ",
"    ....... .......  ......     ",
"     ......  .....       ..     ",
"                    .......     ",
"                     .....      ",
"                                ",
"                                "};
