/* XPM */
static char * sqrt_xpm[] = {
"32 32 2 1",
" 	c None",
".	c black",
"                                ",
"                                ",
"                                ",
"                                ",
"                                ",
"                                ",
"                                ",
"            .............       ",
"            .............       ",
"            ..         ..       ",
"           ..           .       ",
"           ..                   ",
"           ..                   ",
"     ...  ..                    ",
"     ...  ..                    ",
"      ..  ..                    ",
"       ....                     ",
"       ....                     ",
"       ....                     ",
"        ..                      ",
"        ..                      ",
"        ..                      ",
"                                ",
"                                ",
"                                ",
"                                ",
"                                ",
"                                ",
"                                ",
"                                ",
"                                ",
"                                "};
