/* XPM */
static char * up_xpm[] = {
"32 32 2 1",
"  s None c None",
". c #000000",
"                                ",
"                                ",
"                                ",
"                                ",
"                                ",
"                                ",
"                                ",
"               ..               ",
"              ....              ",
"             ......             ",
"            ........            ",
"           ....  ....           ",
"          ....    ....          ",
"         ....      ....         ",
"         ...        ...         ",
"               ..               ",
"              ....              ",
"             ......             ",
"            ........            ",
"           ....  ....           ",
"          ....    ....          ",
"         ....      ....         ",
"         ...        ...         ",
"                                ",
"                                ",
"                                ",
"                                ",
"                                ",
"                                ",
"                                ",
"                                ",
"                                "};
